<svg id="france" width="1067" height="1381" viewBox="0 0 1067 1381" fill="none" xmlns="http://www.w3.org/2000/svg">
<path d="M332.694 734.886C329.446 737.648 327.93 738.351 324.952 738.351C323.111 738.351 320.892 738.839 318.726 739.759C314.178 741.654 310.496 742.628 309.684 742.141C308.223 741.221 300.535 744.361 298.315 746.743C297.557 747.555 295.662 749.18 294.146 750.316C292.522 751.508 291.168 753.023 290.952 753.781C290.789 754.539 290.898 756.759 291.277 758.817C291.656 760.82 292.251 764.285 292.684 766.504C293.605 771.702 293.659 776.575 292.847 781.664C291.818 787.944 291.98 789.352 293.875 792.925L295.554 796.228L293.334 796.119C290.952 796.011 291.06 795.957 289.057 800.288C288.353 801.858 286.296 804.511 284.13 806.623C281.098 809.655 279.907 810.413 277.362 811.171C275.63 811.658 271.84 813.228 268.971 814.744C262.257 818.1 256.356 820.104 252.945 820.104C250.563 820.104 249.805 820.429 246.232 823.027C242.333 825.897 234.375 829.849 232.534 829.849C232.047 829.849 230.964 830.499 230.152 831.365C228.907 832.61 228.582 833.476 228.311 836.725C228.094 838.836 227.661 841.273 227.391 842.085C226.687 843.871 226.524 847.012 227.066 847.553C227.282 847.824 228.798 848.094 230.423 848.257L233.4 848.528L228.961 851.235C217.645 858.165 217.429 858.219 211.906 856.432C210.12 855.891 205.464 855.133 201.566 854.808C196.964 854.429 193.282 853.833 191.279 853.075C184.349 850.585 182.4 850.531 178.772 852.642C176.553 853.942 176.498 853.942 176.498 852.48C176.498 851.289 173.521 846.416 171.139 843.817L169.839 842.355L171.896 840.461C173.9 838.566 173.954 838.512 173.629 835.426C173.25 831.636 172.059 830.39 167.782 829.362C164.912 828.658 164.804 828.712 160.798 830.607C158.578 831.69 156.358 832.556 155.817 832.556C155.275 832.556 154.193 831.798 153.38 830.878C151.106 828.333 148.887 827.521 145.909 828.279C144.61 828.604 143.094 828.766 142.661 828.55C141.307 828.062 139.141 829.145 139.141 830.39C139.141 830.986 140.224 832.556 141.524 833.91C144.934 837.32 145.097 837.645 144.231 841.164C143.148 845.712 143.256 847.066 145.043 849.069C146.288 850.477 146.667 851.559 146.992 854.429C147.317 857.894 147.425 858.056 149.753 859.68C153.489 862.225 153.651 862.658 154.084 872.349C154.463 880.849 154.463 880.958 155.979 882.365C157.495 883.719 157.495 883.719 156.9 887.292C156.033 892.381 157.116 898.12 159.228 899.961L160.744 901.206L158.199 901.531C156.791 901.694 154.95 901.856 154.03 901.856C153.164 901.802 151.648 902.235 150.728 902.722C149.536 903.372 148.454 903.534 147.1 903.264C145.097 902.885 145.097 902.831 145.097 900.286C145.097 897.308 144.61 896.713 141.469 896.009C138.383 895.305 136.759 896.171 136.543 898.608C136.326 900.719 135.947 901.098 132.915 901.91C131.724 902.235 130.262 902.831 129.613 903.21C128.53 903.913 128.476 903.859 128.53 902.018C128.584 899.528 127.339 898.608 125.39 899.69C124.144 900.34 123.874 900.286 123.278 899.42C122.629 898.608 122.087 898.499 119.921 898.878C117.648 899.203 116.835 899.69 114.183 902.397C112.504 904.13 110.663 906.296 110.122 907.216C109.581 908.136 108.985 908.894 108.769 908.894C108.606 908.894 108.119 907.487 107.74 905.808C107.198 903.318 106.603 902.235 104.546 900.178C103.03 898.662 101.351 896.117 100.214 893.681C96.9659 886.534 97.3449 886.967 95.1251 886.913C93.3926 886.913 92.9053 886.588 92.0391 885.181C90.9563 883.448 88.7365 882.799 87.9785 883.99C87.8161 884.26 86.8416 884.531 85.9212 884.531C83.8638 884.531 81.0485 886.101 79.8033 888.05C78.6663 889.783 75.5803 889.999 74.7141 888.321C73.7395 886.534 72.1153 885.939 70.7077 886.913C69.6249 887.617 69.4083 888.267 69.1917 891.732C69.0293 893.897 68.7586 896.009 68.542 896.334C68.2713 896.767 66.4847 896.983 63.6694 896.983C59.7713 896.983 59.0133 897.146 57.3891 898.337C55.061 900.069 53.2744 900.124 52.733 898.445C51.8667 895.576 49.5387 894.601 46.9399 896.009C46.2902 896.334 44.3953 897.633 42.7711 898.878C39.7934 901.206 39.7392 901.206 38.494 900.178C37.7902 899.582 36.8156 899.149 36.2742 899.149C35.408 899.149 23.6595 904.888 20.7359 906.729C19.5989 907.433 14.0766 917.665 14.0766 919.073C14.0766 921.022 20.8441 922.592 23.6053 921.184C24.4716 920.751 26.3124 920.264 27.72 920.101C30.7519 919.668 31.7264 920.48 30.9143 922.592C30.4812 923.675 29.9398 924 28.3697 924.162C26.5289 924.324 26.3124 924.487 25.6627 926.761C25.1213 928.547 25.1213 929.305 25.5544 929.901C26.5831 931.146 29.0735 932.175 31.0226 932.175C32.4302 932.175 33.4589 932.716 35.1914 934.178L37.4653 936.235L31.4016 936.289C26.2582 936.344 25.1213 936.506 23.9302 937.426C22.8474 938.239 22.4684 938.996 22.4684 940.35C22.4684 942.137 22.5766 942.245 25.7168 943.274C29.4525 944.519 30.1022 944.898 31.8888 946.901C33.0799 948.255 33.1341 948.525 32.5385 950.853C31.8347 953.723 32.7009 956.592 34.7041 957.621C36.4366 958.595 42.338 958 44.5577 956.7C45.5323 956.105 47.9145 955.455 49.8094 955.239C51.8126 955.022 53.7617 954.427 54.3572 953.939C55.1693 953.181 55.44 953.181 55.6566 953.723C56.0897 954.968 59.1216 958.162 60.5834 958.92C61.3413 959.353 63.4528 959.841 65.2395 960.057C69.2459 960.544 71.2491 961.519 71.6281 963.143C72.1695 965.201 76.0134 968.611 77.8001 968.503C84.5135 968.232 84.8925 968.287 87.0581 970.615C89.0072 972.618 89.3862 972.78 92.0932 972.78C93.7174 972.78 95.8289 972.564 96.8034 972.293C98.157 971.86 98.5359 971.914 98.5359 972.564C98.5359 972.997 99.4022 974.296 100.485 975.433L102.38 977.599L109.581 977.274C116.023 977.003 116.781 977.057 117.106 977.869C117.323 978.411 117.106 979.548 116.619 980.414C115.32 983.013 114.995 988.968 116.078 991.08C117.593 994.003 118.73 994.436 123.982 993.949C126.527 993.733 129.017 993.354 129.613 993.083C130.479 992.704 130.587 992.812 130.371 994.22C130.208 995.086 129.775 996.494 129.396 997.414C128.909 998.659 128.855 999.58 129.342 1001.26C129.883 1003.21 130.208 1003.59 131.778 1003.86C133.836 1004.24 134.648 1004.99 134.81 1006.62C135.027 1008.51 134.864 1008.95 133.781 1009.33C133.24 1009.49 132.103 1010.25 131.345 1010.95C129.559 1012.63 129.504 1014.79 131.291 1019.07C132.32 1021.67 133.078 1022.64 135.081 1023.94C137.03 1025.24 138.167 1026.6 140.278 1030.44C141.74 1033.09 143.202 1036.29 143.473 1037.48C144.014 1040.02 146.721 1042.68 151.756 1045.6C153.597 1046.68 156.25 1048.31 157.658 1049.23C159.173 1050.2 161.231 1050.96 162.638 1051.12C164.696 1051.39 165.129 1051.66 165.724 1053.02C167.24 1056.64 169.027 1056.97 173.9 1054.53L177.148 1052.85L176.823 1054.32C176.607 1055.13 175.957 1056.48 175.361 1057.29C174.062 1059.13 174.062 1060.27 175.361 1063.25C176.986 1067.04 177.852 1071.7 177.094 1072.56C176.769 1072.99 176.553 1074.67 176.607 1076.35C176.661 1078.03 176.553 1079.55 176.336 1079.76C175.686 1080.47 174.225 1078.57 173.304 1075.86C172.709 1074.19 171.734 1072.72 170.435 1071.7C168.486 1070.13 168.377 1070.13 167.024 1070.99C165.183 1072.24 165.291 1074.08 167.565 1078.46C168.54 1080.47 169.568 1082.96 169.785 1084.04C170.056 1085.61 170.326 1085.93 171.518 1085.93H172.871L171.734 1087.18C170.326 1088.7 170.272 1089.62 171.518 1091.13C172.763 1092.65 174.008 1093.24 177.365 1094C179.584 1094.54 180.667 1095.25 183.104 1097.74C186.785 1101.58 189.005 1104.45 190.521 1107.43C191.712 1109.76 193.553 1116.74 193.065 1117.17C192.957 1117.28 192.686 1116.58 192.47 1115.6C192.253 1114.63 191.55 1112.84 190.846 1111.65C189.492 1109.27 182.346 1102.34 178.502 1099.63C174.387 1096.76 174.062 1097.63 173.196 1113.28C172.925 1118.31 172.438 1126 172.113 1130.33C171.734 1134.66 171.518 1139.86 171.518 1141.86C171.572 1144.62 171.301 1146.14 170.489 1147.76C168.377 1151.93 170.056 1153.61 174.225 1151.5C176.661 1150.25 177.04 1150.42 177.04 1152.64C177.04 1153.83 176.823 1154.15 175.849 1154.15C175.145 1154.15 173.629 1154.75 172.438 1155.4C170.381 1156.53 170.272 1156.8 169.893 1159.84C169.677 1161.62 169.135 1164.76 168.702 1166.87C168.269 1168.93 167.619 1174.56 167.295 1179.33C166.645 1189.18 164.75 1199.41 160.906 1213.38C157.495 1225.83 154.463 1230.87 149.428 1232.33C147.046 1233.03 146.992 1233.14 147.1 1235.09C147.317 1238.07 148.075 1238.72 150.782 1238.29C153.056 1237.96 153.11 1238.02 153.705 1239.86C154.084 1240.94 154.626 1241.91 155.005 1242.02C156.087 1242.4 157.549 1241.37 157.549 1240.23C157.549 1239.64 157.603 1239.15 157.712 1239.15C157.766 1239.15 159.444 1239.69 161.393 1240.4C164.696 1241.59 164.912 1241.75 164.533 1243C163.992 1245.11 162.909 1246.89 161.231 1248.46C160.419 1249.22 159.715 1250.14 159.715 1250.47C159.715 1251.39 163.342 1254.85 164.317 1254.85C164.804 1254.85 165.887 1254.31 166.753 1253.72L168.323 1252.52L170.435 1254.26C172.005 1255.45 173.142 1255.94 174.658 1255.94C176.011 1255.94 177.094 1256.31 177.906 1257.07C178.61 1257.78 180.018 1258.32 181.209 1258.43C182.346 1258.48 184.349 1258.97 185.648 1259.4C186.948 1259.89 188.788 1260.27 189.763 1260.27C191.008 1260.27 192.091 1260.81 193.769 1262.43C195.015 1263.68 196.585 1264.6 197.288 1264.6C199.021 1264.6 200.158 1265.68 200.699 1267.85C201.295 1270.23 202.811 1270.55 204.976 1268.77C206.168 1267.74 206.98 1267.52 208.55 1267.74C210.012 1267.9 210.986 1267.63 212.177 1266.82L213.801 1265.68L216.671 1268.71C218.241 1270.39 219.649 1271.91 219.811 1272.12C219.973 1272.34 220.785 1273.04 221.652 1273.69C223.817 1275.32 227.337 1275.26 231.126 1273.53L234.104 1272.12L236.324 1274.34C237.515 1275.53 238.76 1276.51 239.085 1276.51C239.41 1276.51 240.222 1275.91 240.872 1275.21C241.954 1274.07 242.333 1273.96 244.283 1274.45C245.528 1274.72 248.451 1274.83 250.779 1274.72C254.569 1274.56 255.219 1274.34 256.627 1272.99C258.359 1271.31 258.738 1269.15 257.709 1266.44C257.385 1265.63 257.222 1264.92 257.33 1264.81C257.439 1264.71 259.442 1265.41 261.824 1266.44C264.423 1267.52 267.455 1268.33 269.62 1268.55C274.276 1268.98 274.601 1269.15 275.684 1271.64C276.388 1273.37 276.875 1273.8 278.012 1273.8C278.824 1273.8 279.799 1273.42 280.232 1272.99C280.99 1272.29 281.315 1272.34 283.21 1273.26C284.347 1273.86 285.321 1274.72 285.321 1275.1C285.321 1275.53 285.971 1276.62 286.729 1277.54C288.515 1279.7 290.735 1279.81 292.305 1277.81C293.28 1276.56 293.55 1276.45 294.363 1277.1C294.85 1277.54 296.312 1277.86 297.611 1277.86C299.939 1277.86 300.047 1277.92 300.805 1280.03C301.401 1281.76 301.455 1282.46 300.914 1283.44C300.047 1285.12 300.914 1286.42 302.971 1286.47C303.837 1286.53 305.84 1287.34 307.41 1288.37C309.684 1289.83 310.226 1290.42 310.226 1291.67C310.226 1294.27 311.417 1294.7 315.261 1293.56C317.102 1293.02 319.917 1291.99 321.487 1291.24L324.411 1289.94L327.659 1291.61C330.204 1292.91 331.665 1293.29 333.939 1293.29C336.484 1293.29 337.188 1293.51 338.487 1294.75L340.003 1296.22L341.519 1295.03C344.443 1292.7 348.774 1290.48 352.672 1289.23C356.57 1287.99 356.841 1287.99 360.577 1288.74C366.64 1290.04 367.452 1289.02 363.879 1284.74C360.198 1280.3 359.331 1275.91 360.901 1269.8C361.768 1266.38 361.714 1261.02 360.685 1254.85C360.198 1251.93 360.198 1251.82 362.147 1249.66C364.042 1247.49 365.016 1245.87 365.612 1243.97C365.828 1243.38 366.803 1243 368.698 1242.78C370.268 1242.56 371.946 1242.08 372.488 1241.59C372.975 1241.16 374.22 1240.78 375.195 1240.78C376.71 1240.78 377.577 1240.18 380.446 1237.26C383.045 1234.55 383.857 1233.36 383.857 1232.17C383.857 1230.44 385.644 1229.35 386.727 1230.44C387.701 1231.41 390.083 1231.09 391.328 1229.79C391.978 1229.14 393.061 1227.51 393.765 1226.16C394.631 1224.53 395.497 1223.67 396.526 1223.4C397.392 1223.18 398.475 1222.59 399.016 1222.1C399.883 1221.29 399.991 1221.39 400.641 1222.91C401.074 1223.88 402.157 1225.02 403.294 1225.62C404.376 1226.16 405.946 1227.35 406.813 1228.27C408.545 1230.11 411.252 1230.54 411.794 1229.14C412.064 1228.49 412.335 1228.59 413.201 1229.73C415.367 1232.44 418.669 1232.44 420.781 1229.79L421.755 1228.59V1230.06C421.755 1231.95 423.271 1232.82 425.058 1231.9C426.195 1231.3 426.628 1231.46 428.848 1233.03C434.858 1237.31 438.323 1237.2 439.73 1232.6C440.055 1231.41 440.488 1230.49 440.705 1230.49C441.246 1230.49 442.87 1232.38 442.87 1233.03C442.87 1234.6 444.982 1235.36 451.046 1235.9C454.402 1236.17 457.651 1236.45 458.192 1236.45C459.437 1236.45 459.383 1237.64 457.976 1240.29C456.73 1242.83 456.784 1245.27 458.138 1245.54C458.679 1245.65 460.683 1245.11 462.632 1244.3C466.692 1242.67 467.883 1242.83 469.237 1245.22C469.778 1246.08 471.348 1247.44 472.702 1248.09C475.517 1249.55 481.906 1250.85 483.368 1250.25C484.775 1249.66 500.53 1248.25 504.753 1248.36C507.514 1248.41 508.814 1248.19 509.896 1247.44C510.654 1246.89 512.549 1245.87 514.065 1245.11C515.527 1244.35 516.772 1243.48 516.826 1243.21C516.826 1242.89 517.043 1241.43 517.26 1239.96C517.584 1237.69 517.909 1237.09 519.263 1236.28C520.237 1235.74 521.266 1234.5 521.753 1233.2C522.403 1231.52 522.89 1231.03 523.865 1231.03C525.327 1231.03 529.279 1227.73 529.766 1226.1C529.983 1225.56 531.174 1224.64 532.473 1224.05C536.046 1222.48 539.078 1219.82 540.486 1217.01C541.623 1214.79 541.948 1214.52 543.788 1214.36C546.604 1214.14 554.346 1210.08 555.104 1208.45C555.537 1207.53 555.537 1206.51 555.104 1204.99C554.562 1202.99 554.671 1202.66 555.808 1201.36C560.085 1196.6 562.467 1193.46 563.171 1191.56C563.983 1189.45 563.983 1189.29 562.9 1187.94C562.25 1187.07 561.763 1185.66 561.763 1184.25C561.709 1182.47 561.492 1181.98 560.626 1181.87C559.977 1181.76 558.948 1182.3 558.19 1183.12C557.215 1184.15 556.403 1184.47 554.671 1184.47C553.48 1184.47 552.234 1184.69 551.91 1185.01C550.935 1185.99 548.12 1185.77 546.496 1184.63C545.629 1184.04 543.951 1183.22 542.76 1182.85C541.569 1182.47 539.403 1181.6 537.887 1180.95C536.425 1180.3 534.53 1179.43 533.664 1179.11C532.852 1178.79 531.932 1177.86 531.661 1177.05C531.336 1176.19 530.632 1174.67 530.037 1173.59C529.441 1172.5 528.954 1170.77 528.954 1169.8C528.954 1168.77 528.467 1166.98 527.925 1165.79C527.005 1163.73 527.005 1163.57 527.871 1162.27C528.358 1161.51 529.333 1159.4 530.037 1157.51C531.228 1154.21 531.282 1154.15 533.339 1154.15C535.288 1154.15 535.451 1154.04 535.451 1152.58C535.451 1151.66 534.855 1150.31 534.097 1149.39C533.123 1148.25 532.744 1147.11 532.744 1145.6C532.744 1142.94 532.202 1142.46 527.221 1140.94C523.486 1139.8 523.215 1139.64 522.078 1137.37C521.428 1136.01 520.887 1134.34 520.887 1133.63C520.833 1132.93 519.967 1131.41 518.938 1130.28C516.502 1127.57 516.502 1126.54 518.83 1126.54C519.858 1126.54 520.833 1126.38 520.995 1126.16C521.212 1125.94 522.728 1125.89 524.352 1125.94C527.492 1126.11 527.925 1125.84 531.011 1121.78C532.094 1120.26 532.365 1120.21 533.827 1120.75C535.126 1121.23 535.559 1121.18 536.479 1120.37C538.158 1118.8 539.457 1115.01 539.024 1112.52C538.808 1111 538.916 1110.24 539.511 1109.76C540.973 1108.51 540.378 1107.16 537.021 1104.4C535.234 1102.88 533.556 1101.63 533.285 1101.63C533.069 1101.63 532.581 1100.88 532.148 1099.96C531.607 1098.6 531.607 1097.9 532.094 1096.6C532.906 1094.43 531.823 1092.65 529.387 1092C527.925 1091.62 527.167 1090.81 525.327 1087.67L523.053 1083.82L524.244 1082.96C524.893 1082.52 525.76 1082.14 526.139 1082.14C527.276 1082.14 533.827 1075.65 533.827 1074.51C533.827 1072.83 531.769 1068.72 530.632 1068.12C530.037 1067.8 528.846 1067.53 527.979 1067.53C526.409 1067.53 526.409 1067.53 526.842 1065.2C527.492 1061.73 527.492 1061.57 525.327 1060.65C524.19 1060.22 523.161 1059.73 523.053 1059.62C522.944 1059.51 523.756 1058.38 524.839 1057.02C527.384 1053.94 527.384 1052.1 525.002 1049.77C523.594 1048.41 523.215 1047.66 523.432 1046.52C523.702 1044.68 523.215 1044.25 518.451 1042.35C514.282 1040.73 512.82 1040.78 508.164 1042.57C506.648 1043.16 504.699 1043.81 503.887 1043.98C503.021 1044.14 501.18 1045.38 499.772 1046.68C496.74 1049.5 495.766 1049.66 494.521 1047.6C493.979 1046.79 493.005 1045.65 492.301 1045L491.001 1043.87L492.95 1041.05C494.954 1038.02 495.17 1037.21 494.304 1035.58C493.871 1034.77 494.358 1034.23 497.39 1032.12C500.476 1030.01 504.158 1026.33 505.565 1023.94C505.782 1023.56 506.702 1022.97 507.568 1022.54C508.922 1021.89 509.247 1021.4 509.355 1019.67C509.517 1017.55 508.11 1013.39 507.189 1013.39C506.973 1013.39 506.756 1013.17 506.756 1012.95C506.756 1012.74 508.814 1011.87 511.304 1011.06C514.661 1009.97 516.718 1008.89 518.938 1007.05C521.753 1004.72 521.97 1004.34 521.753 1002.77C521.483 1001.26 521.753 1000.83 523.648 999.309C524.948 998.28 526.409 996.277 527.276 994.545C529.495 989.835 529.549 989.78 532.04 989.131C533.935 988.589 534.368 988.264 534.368 987.182C534.368 985.72 532.527 984.312 530.037 983.771C528.142 983.392 528.196 983.608 529.225 981.01C530.524 977.869 532.635 976.516 535.667 976.895C538.32 977.274 538.645 977.653 537.346 978.736C536.317 979.602 536.317 980.577 537.292 981.389C537.833 981.876 539.457 981.93 542.76 981.659C547.091 981.334 547.632 981.118 550.015 979.223C551.693 977.978 552.938 976.354 553.534 974.946L554.454 972.672L556.782 972.997C559.76 973.484 560.572 972.618 560.031 969.748C559.76 968.341 558.785 966.771 556.999 964.876L554.4 962.115L555.537 959.462C556.133 958 556.728 955.78 556.782 954.535C556.89 953.29 557.594 951.178 558.406 949.77C560.085 946.684 560.139 946.089 558.677 943.761C557.54 941.92 557.324 940.133 557.54 934.774C557.648 931.85 557.811 931.471 560.301 928.71C562.142 926.707 563.117 925.082 563.387 923.675C563.55 922.538 564.199 920.805 564.741 919.831C565.499 918.531 565.77 917.07 565.715 914.687C565.661 912.143 565.932 910.735 566.907 908.894C568.91 904.942 573.945 897.958 576.652 895.359C579.521 892.598 581.687 888.592 583.907 881.662C585.802 875.869 585.585 875.49 580.171 874.948C577.356 874.677 576.11 874.298 574.919 873.27C573.674 872.241 572.97 872.025 571.563 872.295C567.556 873.053 563.712 872.891 559.273 871.808C554.941 870.725 554.671 870.563 554.183 868.939C553.913 867.964 553.101 866.556 552.397 865.798C550.989 864.282 550.502 864.282 545.792 866.502C543.518 867.531 542.381 867.747 540.648 867.531C539.457 867.314 537.454 867.098 536.263 867.044C534.097 866.935 531.715 865.582 529.225 863.091C528.521 862.388 527.709 861.792 527.492 861.792C526.193 861.846 522.89 863.362 522.241 864.282C521.483 865.257 521.428 865.257 520.4 864.337C519.858 863.849 519.046 862.388 518.667 861.088C517.639 857.623 516.61 855.837 515.148 855.187C514.228 854.754 513.686 853.996 513.47 852.642C513.307 851.559 513.037 850.26 512.874 849.719C512.549 848.473 506.54 845.55 504.428 845.55C503.616 845.55 501.667 844.792 500.097 843.926C498.473 843.005 496.578 842.301 495.874 842.301C495.116 842.301 492.95 843.384 491.11 844.738C488.348 846.633 487.482 847.012 486.67 846.578C486.075 846.308 485.641 845.82 485.641 845.55C485.641 844.088 483.801 843.384 479.794 843.384C476.329 843.384 475.517 843.222 474.434 842.247C473.135 841.002 471.294 840.731 468.533 841.381C466.53 841.868 464.31 840.406 463.227 837.699C461.874 834.451 458.3 832.394 457.163 834.234C456.947 834.613 456.514 834.18 456.081 833.206C455.539 831.906 454.89 831.419 453.157 830.932C451.804 830.553 450.179 829.578 449.151 828.495C447.256 826.438 442.112 823.894 440.001 823.894C438.593 823.894 438.539 823.731 438.539 821.241C438.539 819.725 438.81 818.371 439.135 818.155C440.001 817.613 439.351 812.903 438.16 810.9C437.24 809.276 437.24 809.167 438.377 806.948C439.838 804.024 440.326 801.209 439.568 800.288C439.189 799.855 437.889 799.53 436.536 799.53C434.316 799.53 433.829 799.801 431.447 802.183C429.173 804.511 428.794 805.161 428.794 807.056C428.794 809.492 427.386 810.9 424.95 810.9C424.138 810.9 422.189 811.766 420.619 812.795C417.424 814.96 416.775 814.96 411.306 812.903C408.112 811.712 408.112 811.712 408.383 809.763C408.545 808.68 409.141 807.272 409.79 806.623C410.44 805.973 410.927 804.782 410.927 803.97C410.927 802.4 409.52 800.613 408.329 800.613C407.95 800.613 407.679 800.018 407.679 799.314C407.679 797.094 408.653 795.199 410.115 794.658C412.118 793.9 411.848 792.275 409.466 790.814C408.329 790.164 406.542 788.648 405.459 787.511L403.564 785.508H397.338C393.115 785.508 390.787 785.779 390.029 786.266C388.946 786.97 388.838 786.861 388.242 784.1C387.43 780.527 384.886 776.575 382.179 774.788C380.067 773.38 375.682 772.893 373.191 773.759C372.217 774.138 371.73 773.813 370.322 771.864C369.077 770.078 368.698 769.157 368.968 768.129C370.159 763.418 370.159 763.473 366.37 761.09C364.096 759.629 362.742 758.438 362.526 757.571C362.038 755.731 360.252 755.406 356.841 756.543C354.35 757.355 352.51 758.871 351.698 760.711C351.427 761.415 349.045 758.979 346.662 755.514C345.58 753.998 344.659 753.348 342.818 752.861L340.382 752.266L340.761 747.609C341.086 743.278 341.032 742.845 339.787 741.004C339.083 739.921 338.271 738.135 338.054 736.944C337.892 735.807 337.459 734.507 337.134 734.128C336.322 733.1 334.481 733.37 332.694 734.886Z" fill="#2B2424" fill-opacity="0.08"/>
<path d="M633.554 1253.77C631.009 1254.15 630.251 1254.91 630.143 1257.02C630.143 1257.78 629.98 1261.51 629.872 1265.36C629.764 1269.2 629.547 1272.5 629.385 1272.61C629.222 1272.77 628.573 1272.61 627.869 1272.34C626.353 1271.64 623.267 1272.23 618.773 1274.13C617.095 1274.83 615.254 1275.43 614.713 1275.43C613.467 1275.43 608.487 1277.7 606.375 1279.22C605.563 1279.81 604.48 1280.3 604.101 1280.3C602.477 1280.3 601.502 1282.19 601.502 1285.33C601.502 1287.93 601.286 1288.47 600.095 1289.45C599.337 1290.04 598.254 1290.69 597.658 1290.86C596.9 1291.13 596.63 1291.72 596.63 1293.02C596.63 1294.7 596.792 1294.92 598.741 1295.46C599.878 1295.73 601.123 1296.38 601.557 1296.87C602.152 1297.57 602.044 1297.62 600.799 1297.35C599.066 1296.87 596.63 1299.03 596.63 1301.09C596.63 1303.58 600.311 1308.61 603.668 1310.67C604.318 1311.05 604.209 1311.38 602.856 1312.51C601.99 1313.27 600.636 1314.19 599.878 1314.57C598.146 1315.44 597.983 1316.46 599.337 1318.58C600.311 1320.25 600.582 1320.36 603.397 1320.36C605.022 1320.36 606.375 1320.58 606.375 1320.85C606.375 1321.12 606.104 1322.58 605.78 1324.04C605.238 1326.37 604.913 1326.81 603.614 1327.08C602.531 1327.29 602.044 1327.73 602.044 1328.38C602.044 1330.11 603.83 1331.19 606.537 1331.19C609.299 1331.19 610.327 1332.06 608.811 1333.14C608.27 1333.57 607.783 1334.82 607.62 1336.28C607.35 1338.45 607.566 1338.99 609.299 1341.37C611.356 1344.24 612.114 1344.73 614.388 1344.73C615.2 1344.73 616.878 1345.21 618.178 1345.81C620.127 1346.68 620.722 1347.38 621.805 1349.82C622.78 1352.09 623.484 1352.9 624.566 1353.17C626.515 1353.66 628.573 1351.98 629.385 1349.27C629.71 1348.08 630.684 1346.13 631.442 1344.94C632.254 1343.81 632.904 1342.56 632.904 1342.24C632.904 1341.91 633.391 1340.99 634.041 1340.18C634.853 1339.15 635.124 1338.23 634.907 1336.98C634.745 1335.85 634.961 1334.93 635.503 1334.28C636.098 1333.57 636.423 1331.57 636.694 1326.97L637.073 1320.63L640.43 1314.03C643.516 1307.86 643.732 1307.15 643.732 1303.74C643.732 1301.74 643.461 1297.89 643.191 1295.24C642.758 1291.78 642.812 1289.88 643.245 1288.58C643.84 1286.69 643.137 1280.62 642.054 1278.57C641.783 1278.02 641.566 1277.21 641.566 1276.78C641.566 1276.29 640.971 1275.64 640.213 1275.32C639.184 1274.83 638.914 1274.45 639.184 1273.59C639.563 1272.34 640.646 1270.28 641.675 1268.88C642.108 1268.23 642 1267.47 641.133 1265.63C640.484 1264.16 639.888 1261.62 639.726 1259.18C639.509 1255.88 639.238 1254.96 638.264 1254.15C637.614 1253.66 636.856 1253.28 636.477 1253.28C636.152 1253.34 634.799 1253.55 633.554 1253.77Z" fill="#2B2424" fill-opacity="0.08"/>
<path id="road" d="M574 895.5C574 895.5 780 825.5 859.5 713.5C939 601.5 925.5 436 925.5 436" />
<path id="plane" d="M585.576 888.451C584.913 886.083 582.423 884.678 580.054 885.337L567.09 888.944L550.897 870.999L544.355 872.675L555.183 892.258L541.839 895.971L536.952 891.996L531.039 893.511L537.392 900.796L535.693 910.145L541.606 908.63L543.764 902.85L557.261 899.686L558.106 921.827L564.648 920.15L569.306 896.863L582.419 893.789C584.815 893.228 586.239 890.82 585.576 888.451Z" fill="#6B6767"/>
<path d="M970.475 0.510437C968.572 0.742493 966.855 0.974548 966.623 1.06732C966.438 1.11377 967.273 2.50592 968.433 4.17657C972.888 10.3022 972.331 18.0984 966.855 24.9202L964.349 28.0758L965.881 29.236C969.454 31.9739 969.408 31.4171 966.484 35.0367C965.092 36.8002 963.746 38.3315 963.514 38.4244C963.328 38.5172 959.198 36.6609 954.418 34.2942L945.648 30.0712L941.471 30.3497L937.341 30.6281L935.392 28.7255L933.489 26.8692L930.844 28.1222L928.245 29.4216V38.1923V47.0095L926.111 52.6247C924.95 55.7339 923.883 58.379 923.79 58.5647C923.697 58.7503 920.913 57.2189 917.618 55.177C914.323 53.1816 911.446 51.5109 911.214 51.5109C910.982 51.5109 910.286 52.3463 909.729 53.4136C909.126 54.4345 906.806 56.894 904.578 58.8431L900.494 62.37L897.432 72.1153C895.714 77.4984 894.276 81.907 894.229 81.9534C894.183 81.9998 892.884 82.2783 891.352 82.6495C888.614 83.2992 888.568 83.3456 888.429 84.9698C888.336 86.2228 889.032 88.3111 891.12 93.0445L893.951 99.4022L893.626 102.975L893.348 106.502L890.146 109.751C887.547 112.442 886.34 114.252 883.231 120.192C881.143 124.137 878.266 129.009 876.827 131.051C873.904 135.042 873.996 134.625 875.296 141.168L876.131 145.205L871.444 148.082C866.85 150.913 866.664 150.96 862.024 151.516C859.378 151.795 857.104 152.212 856.965 152.352C856.78 152.537 857.058 156.25 857.569 160.612C858.497 168.362 858.497 168.594 857.661 171.842C857.058 174.163 856.733 177.782 856.501 183.537C856.223 191.333 856.13 191.983 855.063 193.653C854.459 194.628 853.67 196.762 853.299 198.433C852.974 200.057 852.278 202.053 851.768 202.888C851.257 203.723 848.427 209.107 845.41 214.815C840.955 223.4 840.073 225.349 840.63 225.72C846.106 229.897 848.844 232.263 849.076 233.099C849.215 233.655 849.355 236.533 849.355 239.549C849.355 244.793 849.308 245.071 847.684 248.691C846.756 250.779 845.735 252.45 845.457 252.45C845.178 252.45 842.347 251.707 839.192 250.826C832.509 248.97 832.138 248.923 827.683 249.99C824.759 250.64 824.063 251.011 822.3 252.868C821.186 254.028 817.984 258.622 815.246 263.077L810.234 271.152L810.698 273.982L811.209 276.813L808.935 281.268L806.661 285.723L809.167 291.338L811.673 296.954L810.002 298.903L808.332 300.805L808.888 304.007C809.584 308.091 809.584 309.715 808.842 312.268C808.239 314.217 808.332 314.634 810.466 321.688C811.673 325.725 812.694 329.716 812.694 330.552C812.694 331.387 812.044 336.538 811.302 342.014L809.956 351.991L811.209 353.616C814.318 357.699 815.524 358.72 817.288 358.72C818.912 358.72 819.051 358.906 821.464 362.897C824.295 367.63 824.295 367.027 821.604 374.962L820.258 378.907L816.267 379.835C814.086 380.346 812.137 380.902 811.998 381.088C811.534 381.552 814.782 391.576 816.87 396.077C818.448 399.465 818.727 400.579 818.727 403.131C818.727 405.451 818.494 406.472 817.752 407.54C816.87 408.746 816.777 409.35 817.009 411.948C817.474 416.775 816.36 419.977 813.111 423.318C810.745 425.731 810.281 426.009 808.61 426.009C806.754 426.009 804.341 426.798 804.341 427.355C804.387 427.494 804.665 428.144 805.037 428.794C805.826 430.186 805.918 432.228 805.269 433.434C804.99 433.945 804.062 434.687 803.134 435.105L801.463 435.894L801.695 438.725C801.835 440.303 802.252 443.365 802.624 445.546C803.412 449.862 803.134 453.714 801.788 459.19C800.86 462.81 799.746 464.295 798.029 464.295C796.823 464.295 796.684 464.109 796.405 462.392C795.987 460.211 794.224 456.173 793.621 456.173C793.389 456.173 792.414 456.916 791.393 457.798L789.583 459.422L790.233 461.603C790.604 462.763 790.883 464.759 790.883 465.965C790.883 467.172 791.115 468.75 791.393 469.492C791.672 470.188 792.089 472.369 792.321 474.272C792.507 476.175 792.832 478.541 793.017 479.469C793.203 480.769 793.11 481.279 792.646 481.465C792.182 481.65 792.043 482.207 792.182 483.089C792.321 484.156 792.6 484.481 793.481 484.481C794.827 484.481 795.152 485.038 795.245 487.451C795.291 488.472 795.477 489.632 795.663 489.911C795.848 490.236 795.848 490.885 795.57 491.303C795.291 491.906 795.338 492.417 795.802 493.066C796.173 493.53 796.452 494.319 796.452 494.783C796.452 495.758 796.637 495.804 797.89 495.155C798.911 494.551 799.004 495.015 798.076 496.268C797.612 496.872 797.565 497.382 797.844 497.939C798.076 498.357 798.122 499.146 797.983 499.702C797.797 500.491 797.937 500.723 798.586 500.723C799.097 500.723 799.793 500.538 800.164 500.306C801.463 499.424 801.603 500.399 800.35 501.698C799.143 502.997 799.097 503.09 799.7 504.946C800.071 506.014 800.628 506.942 800.953 507.081C801.278 507.22 801.556 507.731 801.556 508.195C801.556 508.845 801.881 509.077 802.716 509.077C803.366 509.077 803.969 509.355 804.062 509.633C804.155 509.958 804.48 510.979 804.805 511.861C805.129 512.743 805.362 514.413 805.315 515.573C805.222 517.755 806.058 521.606 806.661 521.606C806.8 521.606 807.264 521.096 807.589 520.446C808.471 518.822 808.842 519.007 808.61 520.91C808.517 521.792 808.656 522.859 808.981 523.23C809.306 523.602 810.188 525.736 810.93 527.964C811.673 530.191 812.647 532.651 813.111 533.44C813.575 534.182 814.086 535.435 814.272 536.131C814.457 536.874 815.385 538.312 816.36 539.38C817.334 540.447 818.68 542.396 819.423 543.742C820.119 545.088 821.743 547.037 822.949 548.058C824.991 549.775 825.223 550.146 825.223 551.91C825.223 552.977 824.991 554.183 824.759 554.555C824.388 555.158 824.11 555.158 822.81 554.415C821.418 553.58 821.325 553.627 820.444 554.508C819.562 555.39 819.562 555.436 821.464 558.082C824.527 562.305 823.646 564.254 819.887 561.562C817.334 559.752 816.638 559.706 817.52 561.423C817.891 562.119 818.541 563.929 818.959 565.46C819.933 568.941 823.414 575.67 825.78 578.825C826.755 580.125 827.683 581.934 827.822 582.816C828.101 584.255 827.961 584.58 826.662 585.693C825.687 586.482 825.084 587.457 824.899 588.57C824.667 589.963 824.852 590.427 825.919 591.401C827.219 592.608 830.978 594 832.88 594C833.437 594 835.294 593.257 837.103 592.376C840.909 590.473 842.44 590.38 846.663 591.865L849.819 592.979L851.257 591.355C852.046 590.427 853.021 589.035 853.392 588.153C854.088 586.714 854.088 586.482 853.253 584.858C852.789 583.883 851.907 582.491 851.304 581.795C849.355 579.336 850.283 576.226 854.227 571.818C856.455 569.358 857.615 568.894 858.589 570.054C858.914 570.426 859.518 570.611 859.982 570.472C860.678 570.286 860.817 569.915 860.585 568.245C860.399 566.481 860.539 566.156 861.559 565.46C862.534 564.857 863.462 564.764 867.407 565.042C870.005 565.228 872.094 565.553 872.094 565.739C872.094 566.342 874.785 566.249 875.945 565.646C877.477 564.81 879.426 565.042 881.143 566.342C882.025 566.992 882.814 567.548 882.953 567.548C883.092 567.548 883.556 566.852 883.974 566.063C884.438 565.228 885.366 563.79 886.062 562.908C886.944 561.84 887.593 560.309 887.918 558.499C888.197 556.968 888.8 555.065 889.218 554.276C889.682 553.534 890.192 552.142 890.378 551.213C890.517 550.285 891.306 548.754 892.048 547.826C892.791 546.898 893.533 545.32 893.719 544.392C893.858 543.464 894.276 541.561 894.647 540.122C895.018 538.684 895.297 537.013 895.297 536.41C895.297 535.807 895.714 534.414 896.225 533.301C897.153 531.305 897.153 531.305 896.179 530.006C895.39 528.938 895.297 528.335 895.529 526.572C895.714 525.412 896.271 524.066 896.735 523.648C897.199 523.23 897.617 522.534 897.617 522.117C897.617 521.699 898.081 520.957 898.592 520.493C899.473 519.796 899.52 519.379 899.241 517.522C898.87 515.156 898.87 512.186 899.241 507.916C899.381 506.385 899.52 504.111 899.473 502.905C899.473 501.652 899.705 500.213 900.03 499.656C901.933 496.129 903.372 480.862 902.072 477.845C901.098 475.478 899.102 474.55 895.575 474.875C893.997 475.014 892.327 475.246 891.816 475.432C891.027 475.71 891.074 475.571 892.002 474.736C893.116 473.808 893.441 473.761 898.917 474.086L904.624 474.411L906.342 472.74C908.291 470.884 911.678 469.074 912.838 469.214C913.906 469.399 916.783 466.522 917.989 464.155C919.242 461.649 919.66 461.464 920.356 463.134C920.681 463.877 921.238 464.759 921.609 465.083C922.212 465.548 922.491 465.455 923.233 464.387C923.744 463.691 924.44 463.134 924.765 463.134C925.09 463.134 925.693 462.624 926.111 461.974C926.575 461.278 927.456 460.768 928.57 460.582C931.587 460.072 931.587 460.072 930.844 458.54C930.148 457.241 930.194 457.148 931.958 455.338C932.979 454.317 933.814 453.296 933.814 453.064C933.814 452.182 929.777 448.841 928.013 448.238L926.157 447.588L928.941 447.449C931.633 447.31 931.772 447.356 933.164 448.934C934.742 450.744 935.531 450.93 937.48 449.955C939.8 448.748 940.079 448.052 938.919 446.196C938.362 445.268 938.083 444.34 938.269 444.015C938.501 443.69 938.687 442.391 938.733 441.091C938.826 438.4 940.032 434.873 941.1 434.038C941.517 433.713 942.863 433.434 944.07 433.434C946.669 433.434 947.133 432.97 946.112 431.439C945.462 430.418 945.462 430.232 946.344 429.119C947.411 427.819 947.179 426.798 945.601 425.499C945.137 425.128 944.07 423.271 943.234 421.369C941.193 416.96 940.729 416.45 937.991 415.8C934.696 415.011 934.324 414.269 936.459 413.016L938.176 411.995L937.062 411.159C936.181 410.51 936.042 410.138 936.413 409.767C936.923 409.257 936.506 407.818 934.232 402.574C933.953 401.925 933.86 402.621 933.907 404.662C933.953 406.333 933.768 407.725 933.536 407.725C932.515 407.911 930.937 406.844 928.849 404.662C926.157 401.785 925.507 400.672 925.461 399.001C925.461 397.33 925.09 397.191 923.001 398.026C921.656 398.583 921.192 399.094 920.959 400.068C920.635 401.785 920.171 402.064 918.964 401.321C918.268 400.857 918.036 400.254 918.036 398.769C918.036 396.588 917.618 396.17 915.53 396.217C914.602 396.263 913.674 395.845 912.931 395.196C912.282 394.592 911.307 393.943 910.704 393.757C909.776 393.479 909.729 393.339 910.24 392.736C910.564 392.318 910.889 390.694 910.936 389.07C910.982 386.564 910.843 386.054 909.868 385.125C908.755 384.058 908.383 382.202 909.219 381.691C909.451 381.552 909.544 379.278 909.404 376.076C909.172 371.436 909.219 370.6 909.915 369.858C910.704 369.022 910.657 368.883 909.451 367.491C908.523 366.331 908.291 365.681 908.523 364.8C908.894 363.361 908.894 361.969 908.476 359.324C908.244 357.699 908.383 357.235 909.172 356.586C910.24 355.658 910.425 354.497 909.683 353.105C909.312 352.409 909.358 352.131 909.868 351.945C910.518 351.713 911.214 352.177 913.906 354.869L915.112 356.029L915.437 354.08C915.716 352.363 915.576 351.991 914.555 351.017C913.72 350.228 913.395 349.485 913.395 348.232C913.395 347.258 913.163 345.819 912.838 344.984C912.374 343.638 912.467 343.035 913.767 339.74C914.602 337.698 915.252 335.703 915.252 335.285C915.252 334.264 916.365 332.222 917.433 331.248C918.314 330.459 918.268 330.366 915.53 327.535L912.699 324.612L914.323 324.38C915.762 324.194 915.948 323.962 916.087 322.616C916.226 321.038 916.644 320.853 918.082 321.595C918.825 322.013 919.335 321.781 921.052 320.342C922.398 319.275 923.373 317.976 923.651 316.908C924.022 315.655 924.394 315.284 925.182 315.284C925.971 315.33 926.157 315.052 926.203 313.799C926.203 312.964 926.482 312.036 926.76 311.757C927.085 311.432 927.317 310.736 927.317 310.179C927.317 309.622 927.642 308.926 928.013 308.602C928.384 308.277 928.709 307.766 928.709 307.441C928.709 307.163 929.127 306.513 929.637 306.049C930.148 305.585 930.566 304.703 930.566 304.1C930.566 302.894 930.705 302.847 932.004 303.543C933.304 304.239 934.417 303.265 934.046 301.733C933.86 300.898 934 300.573 934.742 300.388C935.531 300.202 935.577 300.016 935.113 299.46C934.696 298.949 934.696 298.717 935.206 298.392C935.949 297.928 935.949 297.882 934.046 297.046C933.257 296.675 932.932 296.304 933.257 296.211C933.536 296.072 933.814 295.701 933.814 295.329C933.814 294.772 934 294.772 934.742 295.144C936.042 295.84 936.738 295.329 936.088 294.169C935.717 293.427 935.763 293.009 936.32 292.406C936.738 291.942 937.062 291.292 937.062 290.874C937.062 290.457 937.851 289.946 939.058 289.621C940.125 289.297 941.703 288.6 942.538 288.09C944.023 287.162 944.07 287.162 944.766 287.997C945.276 288.647 945.555 288.74 945.74 288.276C945.88 287.951 946.483 287.069 947.086 286.373C947.689 285.63 948.2 284.656 948.2 284.145C948.2 283.681 948.618 283.032 949.128 282.707C949.778 282.336 950.056 281.64 950.056 280.572C950.056 278.902 951.031 277.509 952.145 277.509C952.516 277.509 953.305 277.695 953.954 277.973L955.161 278.391L954.836 275.653C954.465 272.08 955.161 272.033 956.785 275.421C958.038 278.066 958.595 278.391 959.987 277.37C960.73 276.813 960.776 276.581 960.266 275.653C959.709 274.632 959.894 274.354 963.05 271.384C966.345 268.275 966.484 268.228 968.897 268.228C970.289 268.228 971.403 268.043 971.403 267.857C971.403 267.625 971.914 267.207 972.517 266.929C973.259 266.604 973.723 265.908 973.909 264.794C974.234 263.123 974.976 262.706 975.904 263.634C976.276 264.005 976.554 263.866 976.972 263.077C977.297 262.474 978.318 260.896 979.292 259.643C980.731 257.694 983.886 250.083 985.093 245.582C985.279 244.979 985.928 244.329 986.532 244.097C987.181 243.818 987.97 243.03 988.249 242.241C988.573 241.498 989.687 240.292 990.708 239.503C992.657 238.157 995.442 234.955 996.416 233.052C996.88 232.17 996.834 232.031 995.998 232.031C995.488 232.031 995.07 231.706 995.07 231.335C995.07 230.964 994.653 230.407 994.142 230.082C993.028 229.386 992.889 228.551 993.957 228.968C994.513 229.2 994.653 229.061 994.421 228.504C994.281 228.133 994.142 227.483 994.142 227.159C994.142 226.787 993.446 226.184 992.611 225.766C991.172 225.117 987.088 221.358 987.738 221.358C987.924 221.358 988.573 221.543 989.223 221.822C990.151 222.147 990.43 222.1 990.43 221.59C990.43 221.265 990.198 220.801 989.919 220.615C989.641 220.43 989.548 219.687 989.734 218.759C990.012 217.228 989.919 217.088 988.295 216.439L986.578 215.743L988.063 214.815C988.898 214.304 989.502 213.562 989.502 213.005C989.502 212.494 990.012 211.288 990.662 210.313C991.265 209.385 992.007 207.9 992.332 207.065C992.704 205.905 993.121 205.58 994.003 205.58C994.931 205.58 995.07 205.44 994.653 204.976C994.281 204.512 994.421 203.863 995.117 202.517C995.766 201.217 995.998 199.965 995.952 197.969C995.859 196.159 996.045 195.138 996.37 194.999C996.695 194.906 996.927 194.025 996.927 193.004C996.927 191.379 996.787 191.194 995.813 191.194C994.328 191.194 993.817 189.662 994.792 188.177C995.72 186.785 997.066 186.692 998.644 187.945L999.85 188.873L1002.03 186.924C1003.28 185.811 1004.26 184.743 1004.31 184.511C1004.35 184.233 1003.89 183.537 1003.33 182.933L1002.26 181.82L1004.03 182.145C1005.14 182.377 1005.98 182.284 1006.39 181.913C1006.9 181.541 1007.32 181.541 1008.02 181.866C1009.55 182.701 1010.52 182.516 1010.25 181.402C1010.06 180.66 1010.25 180.335 1010.94 180.149C1011.68 179.963 1011.82 179.639 1011.64 178.478C1011.54 177.69 1011.64 176.529 1011.82 175.973C1012.15 175.137 1012.01 174.534 1011.36 173.606C1010.57 172.538 1010.52 172.074 1010.89 170.497C1011.17 169.522 1011.5 168.13 1011.64 167.387C1011.78 166.691 1012.1 165.995 1012.33 165.856C1012.89 165.531 1014.56 167.016 1014.56 167.851C1014.56 168.176 1014.98 168.455 1015.44 168.455C1015.95 168.455 1016.65 168.78 1017.07 169.151C1018.23 170.311 1018.37 169.986 1018.18 166.877C1018.09 165.206 1018.13 163.953 1018.32 164.092C1018.51 164.185 1019.25 165.206 1019.94 166.366C1020.69 167.48 1021.99 168.78 1022.82 169.244C1023.66 169.708 1024.68 170.589 1025.1 171.193C1025.74 172.167 1025.88 172.214 1026.26 171.517C1026.53 171.007 1027.04 170.868 1027.79 171.053C1028.81 171.285 1028.85 171.239 1028.62 169.429C1028.39 167.666 1028.44 167.573 1029.6 167.712C1030.29 167.759 1031.08 168.223 1031.45 168.687C1032.1 169.568 1033.12 169.29 1033.12 168.176C1033.12 167.341 1033.59 167.341 1034.89 168.269C1035.91 168.965 1036.05 168.965 1037.16 167.944C1038.27 166.83 1038.32 166.83 1038.97 167.712C1039.34 168.223 1039.62 168.78 1039.62 169.012C1039.62 169.615 1041.06 169.429 1043.24 168.594C1044.91 167.991 1045.47 167.944 1046.21 168.408C1047.09 168.965 1047.14 168.872 1046.81 165.81C1046.63 164.092 1046.07 161.494 1045.56 160.102C1045.05 158.709 1044.08 156.018 1043.43 154.162C1042.5 151.516 1041.89 150.588 1040.73 149.892C1038.6 148.546 1037.72 146.319 1037.44 141.353C1037.16 136.759 1037.39 135.878 1040.08 132.211C1041.2 130.68 1041.38 129.891 1041.62 125.807C1041.8 123.116 1042.17 120.563 1042.59 119.821C1042.96 119.078 1043.15 117.965 1043.01 117.361C1042.78 116.201 1040.83 111.7 1037.72 104.971C1036.28 101.815 1035.91 100.562 1035.91 98.3348C1035.91 95.7825 1036 95.5505 1037.21 94.9936C1038.97 94.2047 1039.25 93.7406 1038.88 91.6523C1038.69 90.6314 1038.55 89.0536 1038.51 88.1719C1038.46 86.5476 1038.46 86.5476 1036.05 86.4084C1034.65 86.3156 1033.45 85.9908 1033.08 85.5731C1032.15 84.4594 1032.52 82.2783 1034.05 79.6331C1035.4 77.22 1035.44 77.0344 1034.79 75.3173C1033.87 72.9042 1033.45 66.825 1034.05 65.2008C1034.33 64.5047 1035.07 63.2981 1035.68 62.5556C1036.74 61.2562 1037.25 58.9824 1036.51 58.9359C1036.28 58.8895 1035.12 58.0078 1033.87 56.894C1032.2 55.3627 1031.41 54.2025 1030.8 52.3926C1030.11 50.1652 1029.87 49.8867 1028.67 49.8867C1027.23 49.8867 1026.77 48.9586 1026.67 45.803C1026.63 44.8284 1026.35 43.4827 1025.98 42.7866C1025.23 41.3943 1020.04 36.6609 1019.25 36.6609C1018.97 36.6609 1018.27 36.1505 1017.76 35.5472C1017.21 34.8975 1016.51 34.5262 1016.19 34.6655C1015.81 34.7583 1014.93 34.4334 1014.19 33.8766C1013.4 33.3197 1012.57 32.9484 1012.33 33.134C1012.1 33.2733 1011.64 33.0876 1011.31 32.7164C1010.99 32.2988 1009.97 32.0203 1008.9 32.0203C1006.39 32.0203 1005.56 31.4634 1003.66 28.5399C1002.54 26.7764 1001.66 25.9411 1000.78 25.709C998.551 25.245 998.319 25.1058 998.319 24.2241C998.319 23.3423 996.648 21.5789 994.513 20.2795C993.771 19.8155 993.075 18.8409 992.843 17.9592C992.564 16.9383 992.147 16.4278 991.451 16.335C990.43 16.1958 989.687 15.3605 987.181 11.7872C986.253 10.395 985.325 9.65247 983.84 9.18842C982.494 8.77075 981.891 8.3067 982.03 7.88904C982.633 5.47595 982.587 5.05829 981.195 3.34125C979.849 1.62421 976.322 -0.0928345 974.559 0.0463867C974.234 0.0928345 972.378 0.278442 970.475 0.510437Z" fill="#2B2424" fill-opacity="0.08"/>
<path d="M982.587 261.917C982.262 262.288 981.984 263.912 981.937 265.583C981.798 269.434 982.726 268.414 983.19 264.144C983.515 261.128 983.469 260.849 982.587 261.917Z" fill="#2B2424" fill-opacity="0.08"/>
<path d="M949.314 484.295C949.453 484.713 949.592 485.131 949.592 485.224C949.592 485.316 950.01 485.409 950.474 485.409C951.588 485.409 952.098 484.203 951.17 483.831C949.824 483.321 949.035 483.507 949.314 484.295Z" fill="#2B2424" fill-opacity="0.08"/>
<path d="M946.993 500.074C946.112 500.77 944.487 501.373 942.863 501.651C941.378 501.884 939.754 502.394 939.197 502.812C938.687 503.183 937.434 504.018 936.506 504.668C935.438 505.364 934.278 506.756 933.536 508.288C932.886 509.587 931.494 511.582 930.473 512.65C928.384 514.784 927.781 517.29 928.616 520.4C929.081 521.931 928.988 522.349 928.152 523.462C927.317 524.623 927.271 524.855 927.92 525.829C928.338 526.432 928.895 528.149 929.22 529.588C929.684 531.63 929.962 532.14 930.426 531.723C931.586 530.795 931.076 532.883 929.637 535.064C927.549 538.22 927.828 539.008 930.519 537.616C932.004 536.874 932.422 536.085 932.422 534.043C932.422 531.63 934.278 529.078 937.526 526.896C939.8 525.365 940.264 524.855 939.476 524.855C938.455 524.855 938.455 524.808 939.151 523.509C939.522 522.766 940.264 522.024 940.775 521.838C942.585 521.281 943.884 519.286 942.399 519.286C941.239 519.286 940.682 517.522 941.007 514.738C941.564 509.448 941.703 509.076 943.188 508.148C944.627 507.267 947.504 503.647 948.246 501.744C948.478 501.141 949.406 500.352 950.288 499.981C952.376 499.146 952.33 498.867 950.195 498.867C949.035 498.914 947.921 499.331 946.993 500.074Z" fill="#2B2424" fill-opacity="0.08"/>
<path d="M906.295 522.859C905.924 523.323 905.135 525.458 904.578 527.639C903.093 533.533 901.051 538.034 899.195 539.705C898.267 540.494 897.06 542.211 896.503 543.557C893.023 551.446 892.884 551.863 893.255 553.07C893.441 553.766 893.719 556.411 893.858 558.963L894.137 563.604L895.854 560.124C896.828 558.221 898.035 554.833 898.499 552.606C899.381 548.893 901.469 542.86 902.304 541.793C902.49 541.515 903.093 539.566 903.65 537.384C904.207 535.25 905.135 532.419 905.738 531.12C906.342 529.867 907.038 527.639 907.316 526.247C907.548 524.855 907.919 523.323 908.059 522.859C908.291 522.349 908.151 522.07 907.734 522.07C907.362 522.07 906.713 522.442 906.295 522.859Z" fill="#2B2424" fill-opacity="0.08"/>
</svg>
